<?xml version="1.0" encoding="utf-8"?>
<!DOCTYPE svg PUBLIC "-//W3C//DTD SVG 1.1//EN" "http://www.w3.org/Graphics/SVG/1.1/DTD/svg11.dtd">
<svg version="1.1" xmlns="http://www.w3.org/2000/svg" xmlns:xlink="http://www.w3.org/1999/xlink" viewBox="0 0 804 1178.646" xml:space="preserve">
<path fill="#00C1FB" d="M773.754,1024.944L804,995.485v7.688l-30.23,21.771H773.754z M750.581,1001.741L804,946.886v-19.35
	l-53.436,74.212L750.581,1001.741z M723.712,982.92L804,864.958v-48.476L723.697,982.93L723.712,982.92z M693.984,969.052
	L804,724.713V579.068L693.971,969.062L693.984,969.052z M758.594,5.07l-96.307,955.496l0.011-0.013L804,402.204V13.077L758.594,5.07
	z M558.536,0l71.075,957.702l0.008-0.015L700.626,0H558.536z M360.633,29.746l236.299,930.808l0.006-0.013L500.565,5.072
	L360.633,29.746z M170.904,93.404L565.247,969.04l0.004-0.016L304.426,44.807L170.904,93.404z M0,186.219v10.003l535.517,786.677
	v-0.02L118.166,117.996L0,186.219z M0,1178.646l441.383-32.725l0.017-0.011L0,1113.153V1178.646z M0,295.396V479.47l508.643,522.238
	l-0.002-0.016L0,295.396z M0,552.146v123.209l485.444,349.541l-0.005-0.015L0,552.146z M0,734.157v92.479l466.625,225.13
	l-0.008-0.013L0,734.157z M0,877.623v76.13l452.758,127.738l-0.01-0.013L0,877.623z M0,1000.42v67.977l444.264,44.778l-0.012-0.009
	L0,1000.42z"/>
</svg>
