<?xml version="1.0" encoding="utf-8"?>
<!-- Generator: Adobe Illustrator 15.0.0, SVG Export Plug-In . SVG Version: 6.00 Build 0)  -->
<!DOCTYPE svg PUBLIC "-//W3C//DTD SVG 1.1//EN" "http://www.w3.org/Graphics/SVG/1.1/DTD/svg11.dtd">
<svg version="1.1" id="Layer_1" xmlns="http://www.w3.org/2000/svg" xmlns:xlink="http://www.w3.org/1999/xlink" viewBox="-0.047 41.639 800.094 516.623"
	 enable-background="new -0.047 41.639 800.094 516.623" xml:space="preserve">
<path fill="#ECDB30" stroke="#000000" stroke-width="4" stroke-miterlimit="10" d="M776.176,47.876
	c-31.914,69.624-115.988,238.43-150.687,165.563c-58.595-123.049-235.806-17.321-337.145-35.907
	c-56.926-10.439-136.239-11.992-186.213-7.508c-114.254,10.253,32.244,89.232-41.015,123.042
	c-14.728,6.797-31.547,0.254-44.712-13.45C-34.42,334.354,63.814,399.182,80.87,455.445c24.87-7.585,47.011-10.409,62.649-4.866
	c70.168,24.869-42.633,83.49,46.187,100.366c104.856,19.922,156.006-22.937,237.151-17.764
	c60.868,3.881,320.517-19.63,350.547-115.606C806.908,323.271,803.252,169.36,776.176,47.876z"/>
<path fill="#F53FC8" d="M418.526,310.646c-39.337,124.979-178.31-191.563-254.874,79.099
	c-32.567,115.126,49.209-4.198,207.839,74.699c60.175,29.929,135.921-164.172,307.033-108.483
	c81.127,26.403,124.428-124.75-69.824-127.286C516.062,227.465,426.885,284.092,418.526,310.646z"/>
<path fill="none" stroke="#23221B" stroke-width="4" stroke-miterlimit="10" d="M213.372,190.002
	c33.204,7.812,78.126,17.578,144.534-1.953c66.408-19.532,128.909-3.906,175.785-11.719c46.876-7.812,64.454,37.11,64.454,37.11
	 M180.168,486.882c-15.625,44.923,50.782,48.829,117.189,35.157"/>
</svg>
