<?xml version="1.0" encoding="utf-8"?>
<!-- Generator: Adobe Illustrator 15.0.0, SVG Export Plug-In . SVG Version: 6.00 Build 0)  -->
<!DOCTYPE svg PUBLIC "-//W3C//DTD SVG 1.1//EN" "http://www.w3.org/Graphics/SVG/1.1/DTD/svg11.dtd">
<svg version="1.1" id="Layer_1" xmlns="http://www.w3.org/2000/svg" xmlns:xlink="http://www.w3.org/1999/xlink" viewBox="0 0 804 625.022" enable-background="new 0 0 804 625.022" xml:space="preserve">
<path fill="#F53FC8" stroke="#000000" stroke-width="4" stroke-miterlimit="10" d="M489,2.589c-43-6-37,35-36,70
	c0.984,34.468-74,5-172,1c-93.356-3.811-171-20-174,97C104.073,284.738,29.765,357.945,2,367.946v86.438
	c59.047-48.252,196.6-63.229,362.533,93.612c23.465,22.179,119.692,84.881,200.175,73.703
	C640.09,611.229,739.252,459.581,801,494.589c0.338,0.191,0.665,0.399,1,0.597V97.309C491.506-2.713,527.589,7.974,489,2.589z
	 M140,203.589c-1,49-42,105-42,105S139,252.589,140,203.589s-6-80,32-99C134,123.589,141,154.589,140,203.589z M494,66.589
	c7,23-11,31-11,31S501,89.589,494,66.589s-5-26,16-35C489,40.589,487,43.589,494,66.589z"/>
<path fill="none" stroke="#23221B" stroke-width="4" stroke-miterlimit="10" d="M24.34,406.037
	c55.039-33.773,144.965-4.687,144.965-4.687 M206.099,415.131C408.59,407.633,443.727,725.489,633.5,544.089
	c101.995-97.495,112.5-112.5,159.069-89.96"/>
<path fill="#ECDB30" stroke="#F53FC8" stroke-miterlimit="10" d="M479.086,197.645c116.994-26.998,145.493-13.5,241.488-22.499
	c146.419-13.726-122.994,175.49-230.988,124.493s-148.652,74.904-236.988,80.996C-8.39,398.634,133.542,255.898,213.6,293.64
	C318.594,343.137,418.37,211.655,479.086,197.645z"/>
</svg>
